<?xml version="1.0" encoding="utf-8"?>
<!-- Generator: Adobe Illustrator 16.0.0, SVG Export Plug-In . SVG Version: 6.00 Build 0)  -->
<!DOCTYPE svg PUBLIC "-//W3C//DTD SVG 1.1//EN" "http://www.w3.org/Graphics/SVG/1.1/DTD/svg11.dtd">
<svg version="1.1" id="Layer_1" xmlns="http://www.w3.org/2000/svg" xmlns:xlink="http://www.w3.org/1999/xlink" x="0px" y="0px"
	 width="84.377px" height="84.377px" viewBox="0 0 84.377 84.377" enable-background="new 0 0 84.377 84.377" xml:space="preserve">
<g>
	<defs>
		<rect id="SVGID_1_" width="84.377" height="84.377"/>
	</defs>
	<clipPath id="SVGID_2_">
		<use xlink:href="#SVGID_1_"  overflow="visible"/>
	</clipPath>
	<path clip-path="url(#SVGID_2_)" fill="#7A7652" d="M66.951,56.274c0.425-1.444,0.645-2.958,0.645-4.506
		c0-3.483-1.113-6.797-3.172-9.534c2.086-2.748,3.214-6.081,3.214-9.589c0-1.548-0.221-3.062-0.645-4.505
		c0.133,0.004,0.265,0.009,0.397,0.009c2.859,0,5.72-1.089,7.896-3.266v-0.001c4.355-4.354,4.355-11.439,0-15.795
		c-4.354-4.353-11.439-4.353-15.794,0c-2.281,2.283-3.364,5.31-3.257,8.306c-4.737-1.391-9.997-0.535-14.09,2.561
		c-2.738-2.06-6.052-3.174-9.538-3.174c-1.546,0-3.058,0.22-4.501,0.643c0.004-0.132,0.01-0.263,0.01-0.396
		c0-2.983-1.162-5.787-3.271-7.897c-2.11-2.11-4.915-3.271-7.898-3.271s-5.787,1.161-7.897,3.271
		c-4.354,4.355-4.354,11.441,0,15.794c2.178,2.178,5.037,3.268,7.897,3.268c0.136,0,0.272-0.006,0.408-0.011
		c-1.386,4.722-0.541,9.962,2.529,14.049c-2.039,2.729-3.142,6.028-3.142,9.496c0,1.546,0.22,3.058,0.643,4.5
		c-0.132-0.004-0.262-0.01-0.395-0.01c-2.984,0-5.788,1.162-7.898,3.271c-4.354,4.355-4.354,11.441,0,15.796
		c2.11,2.109,4.914,3.27,7.898,3.27c2.983,0,5.787-1.16,7.897-3.27c2.278-2.278,3.361-5.304,3.257-8.295
		c1.443,0.426,2.957,0.645,4.504,0.645c3.467,0,6.765-1.101,9.493-3.138c2.738,2.063,6.057,3.181,9.548,3.181
		c1.544,0,3.057-0.221,4.499-0.643c-0.005,0.13-0.01,0.262-0.01,0.394c0,2.984,1.161,5.788,3.271,7.898
		c2.177,2.176,5.037,3.266,7.897,3.266c2.859,0,5.72-1.09,7.896-3.266c4.354-4.355,4.354-11.44,0-15.796
		C72.968,57.252,69.942,56.168,66.951,56.274 M42.191,57.771L26.607,42.187l15.584-15.584l15.583,15.584L42.191,57.771z"/>
	<polygon clip-path="url(#SVGID_2_)" fill="#7A7652" points="42.188,0 49.264,7.074 45.767,10.573 42.188,6.996 38.61,10.573 
		35.113,7.074 	"/>
	<polygon clip-path="url(#SVGID_2_)" fill="#7A7652" points="10.573,45.767 7.075,49.263 0,42.189 7.075,35.114 10.573,38.612 
		6.995,42.189 	"/>
	<polygon clip-path="url(#SVGID_2_)" fill="#7A7652" points="42.188,84.377 35.113,77.302 38.61,73.805 42.188,77.381 
		45.767,73.805 49.264,77.302 	"/>
	<polygon clip-path="url(#SVGID_2_)" fill="#7A7652" points="77.302,49.263 73.804,45.767 77.382,42.189 73.804,38.612 
		77.302,35.114 84.377,42.189 	"/>
</g>
</svg>
