<?xml version="1.0" encoding="utf-8"?>
<!-- Generator: Adobe Illustrator 16.0.0, SVG Export Plug-In . SVG Version: 6.00 Build 0)  -->
<!DOCTYPE svg PUBLIC "-//W3C//DTD SVG 1.1//EN" "http://www.w3.org/Graphics/SVG/1.1/DTD/svg11.dtd">
<svg  id="Layer_1" viewBox="0 0 92.736 92.735">
<g>
	<defs>
		<rect id="SVGID_1_" y="0" width="92.736" height="92.735"/>
	</defs>
	<clipPath id="SVGID_2_">
		<use xlink:href="#SVGID_1_"  overflow="visible"/>
	</clipPath>
	<path clip-path="url(#SVGID_2_)" fill="#7A7652" d="M66.654,0C54.482,0,44.34,8.376,41.466,19.655
		c0.219,0.103,0.457,0.14,0.671,0.25l0.324,0.056c1.873,0.32,5.333,0.906,7.998,3.791c2.655,2.892,3.901,6.224,4.109,11.066
		c0.685,3.053,0.813,6.553,0.836,9.04c0.621,1.46,1.061,3.501,0.852,6.12c3.188,1.391,6.694,2.187,10.398,2.187
		c14.402,0,26.082-11.681,26.082-26.083C92.736,11.681,81.057,0,66.654,0 M74.501,36.828c-0.567,0.562-1.309,0.846-2.051,0.846
		s-1.483-0.284-2.052-0.846l-8.693-8.693c-0.539-0.546-0.847-1.283-0.847-2.053V14.49c0-1.6,1.298-2.898,2.898-2.898
		c1.599,0,2.897,1.298,2.897,2.898v10.393l7.847,7.847C75.633,33.861,75.633,35.693,74.501,36.828"/>
	<path clip-path="url(#SVGID_2_)" fill="#7A7652" d="M63.757,89.837c0,1.602-1.299,2.898-2.898,2.898H2.899
		C1.3,92.735,0,91.438,0,89.837v-6.948c0-5.42,3.844-10.184,9.146-11.32l12.728-2.771v-3.76c-0.665-0.958-1.286-2.18-1.934-3.45
		c-0.488-0.955-1.231-2.398-1.554-2.765c-2.053-2.005-4.255-4.514-4.939-7.846c-0.683-3.306,0.18-5.002,0.644-5.913l0.005-1.415
		c-0.068-3.571-0.068-6.688,0.684-8.777c2.65-7.348,10.555-11.446,16.988-11.689c3.188,0.083,5.761,0.772,8.295,2.179
		c0.218,0.111,0.949,0.233,1.437,0.313c1.501,0.255,3.373,0.569,4.701,2.005c1.768,1.924,2.503,4.163,2.596,7.923
		c0.812,3.119,0.812,7.368,0.812,9.698c0.499,0.667,1.362,2.364,0.678,5.675c-0.685,3.325-2.886,5.836-4.956,7.858
		c-0.301,0.341-1.026,1.778-1.507,2.729c-0.644,1.274-1.263,2.503-1.931,3.466v3.762l12.729,2.771
		c5.293,1.142,9.135,5.905,9.135,11.325V89.837z"/>
</g>
</svg>
